{
    "data": [
        {
            "id": 1,
            "name": "European Silver Fir",
            "imageUrl": "https://perenual.com/storage/species_image/1_abies_alba/thumbnail/1536px-Abies_alba_SkalitC3A9.jpg",
            "price": 100
        },
        {
            "id": 2,
            "name": "Pyramidalis Silver Fir",
            "imageUrl": "https://perenual.com/storage/species_image/2_abies_alba_pyramidalis/thumbnail/49255769768_df55596553_b.jpg",
            "price": 100
        },
        {
            "id": 7,
            "name": "Alpine Fir",
            "imageUrl": "https://perenual.com/storage/species_image/7_abies_lasiocarpa/thumbnail/51002756843_74fae3c2fa_b.jpg",
            "price": 100
        },
        {
            "id": 8,
            "name": "Blue Spanish Fir",
            "imageUrl": "https://perenual.com/storage/species_image/8_abies_pinsapo_glauca/thumbnail/21657514018_c0d9fed9f4_b.jpg",
            "price": 100
        },
        {
            "id": 9,
            "name": "Noble Fir",
            "imageUrl": "https://perenual.com/storage/species_image/9_abies_procera/thumbnail/49107504112_6bd7effb8b_b.jpg",
            "price": 100
        },
        {
            "id": 10,
            "name": "Johin Japanese Maple",
            "imageUrl": "https://perenual.com/storage/species_image/10_acer_johin/thumbnail/pexels-photo-2183508.jpg",
            "price": 100
        },
        {
            "id": 11,
            "name": "Snakebark Maple",
            "imageUrl": "https://perenual.com/storage/species_image/11_acer_davidii/thumbnail/6868591754_f4ac5b0510_b.jpg",
            "price": 100
        },
        {
            "id": 12,
            "name": "Amur Maple",
            "imageUrl": "https://perenual.com/storage/species_image/12_acer_ginnala/thumbnail/10476032513_76ca899bc4_b.jpg",
            "price": 100
        },
        {
            "id": 13,
            "name": "Flame Amur Maple",
            "imageUrl": "https://perenual.com/storage/species_image/13_acer_ginnala_flame/thumbnail/pexels-photo-1649190.jpg",
            "price": 100
        },
        {
            "id": 14,
            "name": "Red Rhapsody Amur Maple",
            "imageUrl": "https://perenual.com/storage/species_image/14_acer_ginnala_mondy/thumbnail/pexels-photo-1789879.jpg",
            "price": 100
        },
        {
            "id": 15,
            "name": "Ruby Slippers Amur Maple",
            "imageUrl": "https://perenual.com/storage/species_image/15_acer_ginnala_ruby_slippers/thumbnail/pexels-photo-1640820.jpg",
            "price": 100
        },
        {
            "id": 16,
            "name": "Paperbark Maple",
            "imageUrl": "https://perenual.com/storage/species_image/16_acer_griseum/thumbnail/5158906371_ed08a86876_b.jpg",
            "price": 100
        },
        {
            "id": 17,
            "name": "Fullmoon Maple",
            "imageUrl": "https://perenual.com/storage/species_image/17_acer_japonicum/thumbnail/7175475239_52543c51b3_b.jpg",
            "price": 100
        },
        {
            "id": 18,
            "name": "Cutleaf Fullmoon Maple",
            "imageUrl": "https://perenual.com/storage/species_image/18_acer_japonicum_aconitifolium/thumbnail/23528789198_c419363323_b.jpg",
            "price": 100
        },
        {
            "id": 19,
            "name": "Attaryi Fullmoon Maple*",
            "imageUrl": "https://perenual.com/storage/species_image/19_acer_japonicum_attaryi/thumbnail/pexels-photo-669323.jpg",
            "price": 100
        },
        {
            "id": 20,
            "name": "Golden Fullmoon Maple",
            "imageUrl": "https://perenual.com/storage/species_image/20_acer_japonicum_aureum/thumbnail/2560px-Acer_shirasawanum_27Aureum27.jpg",
            "price": 100
        },
        {
            "id": 21,
            "name": "Emmett's Pumpkin Fullmoon Maple",
            "imageUrl": "https://perenual.com/storage/species_image/21_acer_japonicum_emmetts_pumpkin/thumbnail/Acer_shirasawanum_28golden_fullmoon_maple29_2_284633285838129.jpg",
            "price": 100
        },
        {
            "id": 22,
            "name": "Green Cascade Maple",
            "imageUrl": "https://perenual.com/storage/species_image/22_acer_japonicum_green_cascade/thumbnail/4847225395_2509ee2bfe_b.jpg",
            "price": 100
        },
        {
            "id": 23,
            "name": "Big Leaf Maple",
            "imageUrl": "https://perenual.com/storage/species_image/23_acer_macrophyllum/thumbnail/52135137216_8a124b5188_b.jpg",
            "price": 100
        },
        {
            "id": 24,
            "name": "Mocha Rose Big Leaf Maple",
            "imageUrl": "https://perenual.com/storage/species_image/24_acer_macrophyllum_mocha_rose/thumbnail/4715169892_220a9d39f6_b.jpg",
            "price": 100
        },
        {
            "id": 25,
            "name": "Flamingo Boxelder",
            "imageUrl": "https://perenual.com/storage/species_image/25_acer_negundo_flamingo/thumbnail/5867345385_a9dff5bee7_b.jpg",
            "price": 100
        },
        {
            "id": 26,
            "name": "Kelly's Gold Boxelder",
            "imageUrl": "https://perenual.com/storage/species_image/26_acer_negundo_kellys_gold/thumbnail/28819730054_e2a2b797c9_b.jpg",
            "price": 100
        },
        {
            "id": 27,
            "name": "Japanese Maple",
            "imageUrl": "https://perenual.com/storage/species_image/27_acer_palmatum/thumbnail/2560px-Acer_palmatum_27Bloodgood27_kz01.jpg",
            "price": 100
        },
        {
            "id": 28,
            "name": "Aka Shigitatsu Sawa Japanese Maple",
            "imageUrl": "https://perenual.com/storage/species_image/28_acer_palmatum_aka_shigitatsu_sawa/thumbnail/Acer_palmatum_Aka_shigitatsu_sawa_2zz.jpg",
            "price": 100
        },
        {
            "id": 29,
            "name": "Alpenweiss Variegated Dwarf Japanese Maple*",
            "imageUrl": "https://perenual.com/storage/species_image/2_abies_alba_pyramidalis/thumbnail/49255769768_df55596553_b.jpg",
            "price": 100
        },
        {
            "id": 30,
            "name": "Ao Shime No Uchi Japanese Maple",
            "imageUrl": "https://perenual.com/storage/species_image/30_acer_palmatum_ao_shime_no_uchi/thumbnail/Acer_palmatum_Ao_shime_no_uchi_3zz.jpg",
            "price": 100
        },
        {
            "id": 31,
            "name": "Aoyagi Japanese Maple*",
            "imageUrl": "https://perenual.com/storage/species_image/164_acer_shirasawanum_yasemin/thumbnail/acer_palmatum_japanese_maples_trees_red_red_leaves_blue_sky_blue_white-1126158.jpg",
            "price": 100
        },
        {
            "id": 32,
            "name": "Arakawa Cork Bark Japanese Maple",
            "imageUrl": "https://perenual.com/storage/species_image/2_abies_alba_pyramidalis/thumbnail/49255769768_df55596553_b.jpg",
            "price": 100
        },
        {
            "id": 33,
            "name": "Asahi Zuru Japanese Maple",
            "imageUrl": "https://perenual.com/storage/species_image/2_abies_alba_pyramidalis/thumbnail/49255769768_df55596553_b.jpg",
            "price": 100
        },
        {
            "id": 34,
            "name": "Ribbon-leaf Japanese Maple*",
            "imageUrl": "https://perenual.com/storage/species_image/34_acer_palmatum_atrolineare/thumbnail/2560px-Acer_Palmatum_27Red_Pygmy27.jpg",
            "price": 100
        }
    ],
    "to": 30,
    "per_page": 30,
    "current_page": 1,
    "from": 1,
    "last_page": 203,
    "total": 6085
}